"last name","first name","emp #","commission %","pto/holiday rate","hourly rate","ot rate","monthly salary","reg_hours","ot_hours","pto_hours","hol_hours","total sales","reg pay","ot pay","pto/holiday pay","ot variance","commission pay","total pay"
"Blumhagen","Katherine","160930",0.55,21.63,10.00,15.000,,80.00,25.56,0.00,0.00,255029.18,800.00,383.40,0.00,169.82,1402.66,2755.88
"Evavold","Daniel","141069",2.00,38.73,8.75,13.125,,80.00,13.68,0.00,0.00,95859.66,700.00,179.55,0.00,139.98,1917.19,2936.72
"Hill","Brian","165357",2.35,47.27,10.00,15.000,,80.00,20.91,0.00,0.00,52732.82,800.00,313.65,0.00,128.39,1239.22,2481.26
"Lueker","David","188338",1.50,38.08,10.00,15.000,,80.00,13.02,0.00,0.00,55259.81,800.00,195.30,0.00,58.01,828.90,1882.21
"Ostlund","Anne","1108200",1.25,42.69,10.00,15.000,,74.77,5.70,8.00,0.00,61333.90,747.70,85.50,341.52,27.15,766.67,1968.54
"Shereck","Loren","1126040",0.55,,,,1000.00,,,,,255029.18,1000.00,,,,1402.66,2402.66
"Steinke","Mark","1132218",2.35,40.03,10.00,15.000,,80.00,15.62,0.00,0.00,95055.90,800.00,234.30,0.00,182.45,2233.81,3450.56
"Yem","Rithy","1150510",1.25,39.85,10.00,15.000,,57.21,0.24,0.00,0.00,74087.47,572.10,3.60,0.00,1.93,926.09,1503.72
