"last name","first name","emp #","commission %","pto/holiday rate","hourly rate","ot rate","monthly salary","reg_hours","ot_hours","pto_hours","hol_hours","total sales","reg pay","ot pay","pto/holiday pay","ot variance","commission pay","total pay"
"Blumhagen","Katherine","160930",0.55,21.63,10.00,15.000,,80.00,14.25,0.00,0.00,236958.61,800.00,213.75,0.00,98.52,1303.27,2415.54
"Evavold","Daniel","141069",2.00,38.73,8.75,13.125,,80.00,23.85,0.00,0.00,91503.43,700.00,313.03,0.00,210.15,1830.07,3053.25
"Hill","Brian","165357",2.35,47.27,10.00,15.000,,80.00,9.07,0.00,0.00,41128.48,800.00,136.05,0.00,49.21,966.52,1951.78
"Lueker","David","188338",1.50,38.08,10.00,15.000,,76.80,5.51,8.00,0.00,84785.57,768.00,82.65,304.64,42.57,1271.78,2469.64
"Ostlund","Anne","1108200",1.25,42.69,10.00,15.000,,57.92,5.41,24.00,0.00,49171.45,579.20,81.15,1024.56,26.25,614.64,2325.80
"Shereck","Loren","1126040",0.55,,,,1000.00,,,,,236958.61,1000.00,,,,1303.27,2303.27
"Steinke","Mark","1132218",2.35,40.03,10.00,15.000,,80.00,22.33,0.00,0.00,81019.88,800.00,334.95,0.00,207.74,1903.97,3246.66
"Yem","Rithy","1150510",1.25,39.85,10.00,15.000,,75.36,0.14,8.00,0.00,72793.65,753.60,2.10,318.80,0.84,909.92,1985.26
